[
    {
        "id": 1,
        "Overview": "Manage all your customer information .Manage all your customer information",
        "Website": "www.transplace.com",
        "Industry": "Medical",
        "CompanySize": "200+",
        "Headquarters": "Newyork City,USA",
        "Speciality": "Consumer Based Product",
        "ServicesOffered": "Lorem Ipsum is simply dummy text of the printing  and typesetting industry.",
        "TechStack": "Rube|Java|Python",
        "ClientPartner": "John Doe",
        "DeliveryManager": "Chris Doe",
        "Timezone": "Tuesday, 27 September 2022 (GMT-7)",
        "DeliveryModel": "TNM",
        "OnshoreResources": 1,
        "OffshoreResource": 12,
        "NearShore": 0,
        "vendors":[
            {"vendor":"Innova Solution","service":"devlopment"},
            {"vendor":"Innova Solution","service":"testing"},
            {"vendor":"Innova Solution","service":"requirment gathering"},
            {"vendor":"Innova Solution","service":"maintanence"},
            {"vendor":"Innova Solution1","service":"devlopment"},
            {"vendor":"Innova Solution1","service":"testing"},
            {"vendor":"Innova Solution1","service":"requirment gathering"},
            {"vendor":"Innova Solution1","service":"maintanence"},
            {"vendor":"Innova Solution2","service":"devlopment"},
            {"vendor":"Innova Solution2","service":"testing"},
            {"vendor":"Innova Solution2","service":"requirment gathering"},
            {"vendor":"Innova Solution2","service":"maintanence"},
            {"vendor":"Innova Solution3","service":"devlopment"},
            {"vendor":"Innova Solution3","service":"testing"},
            {"vendor":"Innova Solution3","service":"requirment gathering"},
            {"vendor":"Innova Solution3","service":"maintanence"},
            {"vendor":"Innova Solution4","service":"devlopment"},
            {"vendor":"Innova Solution4","service":"testing"},
            {"vendor":"Innova Solution4","service":"requirment gathering"},
            {"vendor":"Innova Solution4","service":"maintanence"}
    ]
    },
    {
        "id": 2,
        "Overview": "Mangae all yourcustomer information .Manage all yourcustomer information",
        "Website": "www.Google.com",
        "Industry": "Search Engine",
        "CompanySize": "1400+",
        "Headquarters": "Mountain View, California , U.S.",
        "Speciality": "Consumer Based Search Engine",
        "ServicesOffered": "Lorem Ipsum is simply dummy text of the printing  and typesetting industry.",
        "TechStack": "All technologies",
        "ClientPartner": "Sundhar pichey",
        "DeliveryManager": "Akhila",
        "Timezone": "Tuesday, 27 September 2022 (GMT-9)",
        "DeliveryModel": "TNM",
        "OnshoreResources": 10,
        "OffshoreResource": 120,
        "NearShore": 20,
        "vendors":[
            {"vendor":"Google","service":"devlopment"},
            {"vendor":"Google","service":"testing"},
            {"vendor":"Google","service":"requirment gathering"},
            {"vendor":"Google","service":"maintanence"},
            {"vendor":"Google1","service":"devlopment"},
            {"vendor":"Google1","service":"testing"},
            {"vendor":"Google1","service":"requirment gathering"},
            {"vendor":"Google1","service":"maintanence"},
            {"vendor":"Google2","service":"devlopment"},
            {"vendor":"Google2","service":"testing"},
            {"vendor":"Google2","service":"requirment gathering"},
            {"vendor":"Google2","service":"maintanence"},
            {"vendor":"Google3","service":"devlopment"},
            {"vendor":"Google3","service":"testing"},
            {"vendor":"Google3","service":"requirment gathering"},
            {"vendor":"Google3","service":"maintanence"},
            {"vendor":"Google4","service":"devlopment"},
            {"vendor":"Google4","service":"testing"},
            {"vendor":"Google4","service":"requirment gathering"},
            {"vendor":"Google4","service":"maintanence"}
    ]
    },
    {
        "id": 3,
        "Overview": "7th most popular site. It is hosted by the Wikimedia Foundation, an American non-profit organization funded mainly through donations.",
        "Website": "www.wikimedia.org/",
        "Industry": "Information Provider",
        "CompanySize": "1000+",
        "Headquarters": "San Francisco City,USA",
        "Speciality": "Consumer Based INformation Provider",
        "ServicesOffered": "Who owns the Web site? Wikipedias tech framework is supported by a non-profit parent organization, the Wikimedia Foundation Inc, which also supports Wikipedias sister projects",
        "TechStack": "Rube|Java|Python | dat structre |cloud",
        "ClientPartner": "John Doe",
        "DeliveryManager": "Santhosh Akhil",
        "Timezone": "Tuesday, 27 September 2022 (GMT-12)",
        "DeliveryModel": "TNM",
        "OnshoreResources": 1,
        "OffshoreResource": 12,
        "NearShore": 0,
        "vendors":[
            {"vendor":"wikemedia","service":"devlopment"},
            {"vendor":"wikemedia","service":"testing"},
            {"vendor":"wikemedia","service":"requirment gathering"},
            {"vendor":"wikemedia","service":"maintanence"},
            {"vendor":"wikemedia1","service":"devlopment"},
            {"vendor":"wikemedia1","service":"testing"},
            {"vendor":"wikemedia1","service":"requirment gathering"},
            {"vendor":"wikemedia1","service":"maintanence"},
            {"vendor":"wikemedia2","service":"devlopment"},
            {"vendor":"wikemedia2","service":"testing"},
            {"vendor":"wikemedia2","service":"requirment gathering"},
            {"vendor":"wikemedia2","service":"maintanence"},
            {"vendor":"wikemedia3","service":"devlopment"},
            {"vendor":"wikemedia3","service":"testing"},
            {"vendor":"wikemedia3","service":"requirment gathering"},
            {"vendor":"wikemedia3","service":"maintanence"},
            {"vendor":"wikemedia4","service":"devlopment"},
            {"vendor":"wikemedia4","service":"testing"},
            {"vendor":"wikemedia4","service":"requirment gathering"},
            {"vendor":"wikemedia4","service":"maintanence"}
    ]
    },
    {
        "id": 4,
        "Overview": "Facebook was founded in 2004 by Mark Zuckerberg, Eduardo Saverin, Dustin Moskovitz, and Chris Hughes, all of whom were students at Harvard University. Facebook became the largest social network in the world",
        "Website": "www.facebook.com",
        "Industry": "online Social Media And Social Networking Service",
        "CompanySize": "2000+",
        "Headquarters": "Menlo Park,California,USA",
        "Speciality": "Social Network Product",
        "ServicesOffered": " Profile, News Feed, Messenger, Groups, Events, Video, Photos, Search, Pages, and Facebook for Business",
        "TechStack": "cloud|android developer|Rube|Java|Python",
        "ClientPartner": "John Doe",
        "DeliveryManager": "Lucas",
        "Timezone": "Tuesday, 27 September 2022 (GMT-16)",
        "DeliveryModel": "TNM",
        "OnshoreResources": 1,
        "OffshoreResource": 12,
        "NearShore": 0,
        "vendors":[
            {"vendor":"FaceBook","service":"devlopment"},
            {"vendor":"FaceBook","service":"testing"},
            {"vendor":"FaceBook","service":"requirment gathering"},
            {"vendor":"FaceBook","service":"maintanence"},
            {"vendor":"FaceBook1","service":"devlopment"},
            {"vendor":"FaceBook1","service":"testing"},
            {"vendor":"FaceBook1","service":"requirment gathering"},
            {"vendor":"FaceBook1","service":"maintanence"},
            {"vendor":"FaceBook2","service":"devlopment"},
            {"vendor":"FaceBook2","service":"testing"},
            {"vendor":"FaceBook2","service":"requirment gathering"},
            {"vendor":"FaceBook2","service":"maintanence"},
            {"vendor":"FaceBook3","service":"devlopment"},
            {"vendor":"FaceBook3","service":"testing"},
            {"vendor":"FaceBook3","service":"requirment gathering"},
            {"vendor":"FaceBook3","service":"maintanence"},
            {"vendor":"FaceBook4","service":"devlopment"},
            {"vendor":"FaceBook4","service":"testing"},
            {"vendor":"FaceBook4","service":"requirment gathering"},
            {"vendor":"FaceBook4","service":"maintanence"}
    ]
    },
    {
        "id": 5,
        "Overview": "Apple Inc. (Apple) designs, manufactures and markets smartphones, personal computers, tablets, wearables and accessories and sells a range of related services",
        "Website": "www.apple.com",
        "Industry": "consumer Electronics,Software And OnlineServices",
        "CompanySize": "200+",
        "Headquarters": "Cupertino, California, United States.",
        "Speciality": " Electronic Manfacturing and software services",
        "ServicesOffered": "Apple Inc., formerly Apple Computer, Inc., American manufacturer of personal computers, smartphones, tablet computers, computer peripherals, and computer software.",
        "TechStack": "Android|cloudRube|Java|Python",
        "ClientPartner": "Shinny M",
        "DeliveryManager": "Leo",
        "Timezone": "Tuesday, 27 September 2022 (UTC-7)",
        "DeliveryModel": "TNM",
        "OnshoreResources": 10,
        "OffshoreResource": 22,
        "NearShore": 5,
        "vendors":[
            {"vendor":"apple","service":"devlopment"},
            {"vendor":"apple","service":"testing"},
            {"vendor":"apple","service":"requirment gathering"},
            {"vendor":"apple","service":"maintanence"},
            {"vendor":"apple1","service":"devlopment"},
            {"vendor":"apple1","service":"testing"},
            {"vendor":"apple1","service":"requirment gathering"},
            {"vendor":"apple1","service":"maintanence"},
            {"vendor":"apple2","service":"devlopment"},
            {"vendor":"apple2","service":"testing"},
            {"vendor":"apple2","service":"requirment gathering"},
            {"vendor":"apple2","service":"maintanence"},
            {"vendor":"apple3","service":"devlopment"},
            {"vendor":"apple3","service":"testing"},
            {"vendor":"apple3","service":"requirment gathering"},
            {"vendor":"apple3","service":"maintanence"},
            {"vendor":"apple4","service":"devlopment"},
            {"vendor":"apple4","service":"testing"},
            {"vendor":"apple4","service":"requirment gathering"},
            {"vendor":"apple4","service":"maintanence"}
    ]
    },
    {
        "id": 6,
        "Overview": "What services does Twitter offer Twitter, Inc. offers products and services for users, advertisers, developers and data partners. The Companys products and services include Twitter, Promoted Ads and Twitter Amplify, Follower Ads and Twitter Takeover.",
        "Website": "ww.twitter.com",
        "Industry": "Social Network",
        "CompanySize": "600+",
        "Headquarters": "San Francisco, California, the US.",
        "Speciality": "Social Network",
        "ServicesOffered": "Twitter, Promoted Ads and Twitter Amplify, Follower Ads and Twitter Takeover. Twitter is a platform for public self-expression and conversation in real time.",
        "TechStack": "Android|cloud|Rube|Java|Python",
        "ClientPartner": "xxxxx",
        "DeliveryManager": "William",
        "Timezone": "Tuesday, 27 September 2022 (UTC-9)",
        "DeliveryModel": "TNM",
        "OnshoreResources": 1,
        "OffshoreResource": 12,
        "NearShore": 0,
        "vendors":[
            {"vendor":"twitter","service":"devlopment"},
            {"vendor":"twitter","service":"testing"},
            {"vendor":"twitter","service":"requirment gathering"},
            {"vendor":"twitter","service":"maintanence"},
            {"vendor":"twitter1","service":"devlopment"},
            {"vendor":"twitter1","service":"testing"},
            {"vendor":"twitter1","service":"requirment gathering"},
            {"vendor":"twitter1","service":"maintanence"},
            {"vendor":"twitter2","service":"devlopment"},
            {"vendor":"twitter2","service":"testing"},
            {"vendor":"twitter2","service":"requirment gathering"},
            {"vendor":"twitter2","service":"maintanence"},
            {"vendor":"twitter3","service":"devlopment"},
            {"vendor":"twitter3","service":"testing"},
            {"vendor":"twitter3","service":"requirment gathering"},
            {"vendor":"twitter3","service":"maintanence"},
            {"vendor":"twitter4","service":"devlopment"},
            {"vendor":"twitter4","service":"testing"},
            {"vendor":"twitter4","service":"requirment gathering"},
            {"vendor":"twitter4","service":"maintanence"}
    ]
    },
    {
        "id": 7,
        "Overview": "Mangae all yourcustomer information .Manage all yourcustomer information",
        "Website": "www.wipro.com",
        "Industry": "Personal care Health care Lighting ",
        "CompanySize": "16000+",
        "Headquarters": "Newyork City,USA",
        "Speciality": "Consumer Based Product",
        "ServicesOffered": "Information technology Consulting Outsourcing",
        "TechStack": "Rube|Java|Python",
        "ClientPartner": "John Doe",
        "DeliveryManager": "Julian",
        "Timezone": "Tuesday, 27 September 2022 (UTC-17)",
        "DeliveryModel": "MNM",
        "OnshoreResources": 771,
        "OffshoreResource": 232,
        "NearShore": 100,
        "vendors":[
            {"vendor":"Wipro","service":"devlopment"},
            {"vendor":"Wipro","service":"testing"},
            {"vendor":"Wipro","service":"requirment gathering"},
            {"vendor":"Wipro","service":"maintanence"},
            {"vendor":"Wipro1","service":"devlopment"},
            {"vendor":"Wipro1","service":"testing"},
            {"vendor":"Wipro1","service":"requirment gathering"},
            {"vendor":"Wipro1","service":"maintanence"},
            {"vendor":"Wipro2","service":"devlopment"},
            {"vendor":"Wipro2","service":"testing"},
            {"vendor":"Wipro2","service":"requirment gathering"},
            {"vendor":"Wipro2","service":"maintanence"},
            {"vendor":"Wipro3","service":"devlopment"},
            {"vendor":"Wipro3","service":"testing"},
            {"vendor":"Wipro3","service":"requirment gathering"},
            {"vendor":"Wipro3","service":"maintanence"},
            {"vendor":"Wipro4","service":"devlopment"},
            {"vendor":"Wipro4","service":"testing"},
            {"vendor":"Wipro4","service":"requirment gathering"},
            {"vendor":"Wipro4","service":"maintanence"}
    ]

    },
    {
        "id": 8,
        "Overview": "Mangae all yourcustomer information .Manage all yourcustomer information",
        "Website": "www.transplace.com",
        "Industry": "Medical",
        "CompanySize": "100+",
        "Headquarters": "Newyork City,USA",
        "Speciality": "Consumer Based Product",
        "ServicesOffered": "health related things",
        "TechStack": "Rube|Java|Python",
        "ClientPartner": "Sanjay ",
        "DeliveryManager": "Mahesh",
        "Timezone": "Tuesday, 27 September 2022 (AKST-9)",
        "DeliveryModel": "TNM",
        "OnshoreResources": 1,
        "OffshoreResource": 12,
        "NearShore": 0,
        "vendors":[
            {"vendor":"transplace","service":"devlopment"},
            {"vendor":"transplace","service":"testing"},
            {"vendor":"transplace","service":"requirment gathering"},
            {"vendor":"transplace","service":"maintanence"},
            {"vendor":"transplace1","service":"devlopment"},
            {"vendor":"transplace1","service":"testing"},
            {"vendor":"transplace1","service":"requirment gathering"},
            {"vendor":"transplace1","service":"maintanence"},
            {"vendor":"transplace2","service":"devlopment"},
            {"vendor":"transplace2","service":"testing"},
            {"vendor":"transplace2","service":"requirment gathering"},
            {"vendor":"transplace2","service":"maintanence"},
            {"vendor":"transplace3","service":"devlopment"},
            {"vendor":"transplace3","service":"testing"},
            {"vendor":"transplace3","service":"requirment gathering"},
            {"vendor":"transplace3","service":"maintanence"},
            {"vendor":"transplace4","service":"devlopment"},
            {"vendor":"transplace4","service":"testing"},
            {"vendor":"transplace4","service":"requirment gathering"},
            {"vendor":"transplace4","service":"maintanence"}
    ]
    },
    {
        "id": 9,
        "Overview": "Product Based Company just by name, service based mindset inside | Glassdoo",
        "Website": "www.dell.com",
        "Industry": "service based",
        "CompanySize": "1000+",
        "Headquarters": "Houston, Texas, U.S",
        "Speciality": "Consumer Based Product",
        "ServicesOffered": "Support Services.Deployment Services. Asset Resale & Recycling. End User Configuration & Deployment. Enterprise Configuration & Deployment. Logistics Services.Managed Services.Dell Cloud Services.IT Consulting.",
        "TechStack": "Rube|Java|Python",
        "ClientPartner ": "Michael Dell",
        "DeliveryManager": "Abdul Kareem",
        "Timezone": "Tuesday, 27 September 2022 (AKST-9)",
        "DeliveryModel": "TNM",
        "OnshoreResources": 1901,
        "OffshoreResource": 120,
        "NearShore": 300,
        "vendors":[
            {"vendor":"Dell","service":"devlopment"},
            {"vendor":"Dell","service":"testing"},
            {"vendor":"Dell","service":"requirment gathering"},
            {"vendor":"Dell","service":"maintanence"},
            {"vendor":"Dell1","service":"devlopment"},
            {"vendor":"Dell1","service":"testing"},
            {"vendor":"Dell1","service":"requirment gathering"},
            {"vendor":"Dell1","service":"maintanence"},
            {"vendor":"Dell2","service":"devlopment"},
            {"vendor":"Dell2","service":"testing"},
            {"vendor":"Dell2","service":"requirment gathering"},
            {"vendor":"Dell2","service":"maintanence"},
            {"vendor":"Dell3","service":"devlopment"},
            {"vendor":"Dell3","service":"testing"},
            {"vendor":"Dell3","service":"requirment gathering"},
            {"vendor":"Dell3","service":"maintanence"},
            {"vendor":"Dell4","service":"devlopment"},
            {"vendor":"Dell4","service":"testing"},
            {"vendor":"Dell4","service":"requirment gathering"},
            {"vendor":"Dell4","service":"maintanence"}
    ]
    },
    {
        "id": 10,
        "Overview": " The open source software project was created by Ukrainian developer Dmitriy Zaporozhets and Dutch developer Sytse Sijbrandij. In 2018,",
        "Website": "www.gitlab.com",
        "Industry": "Software",
        "CompanySize": "100+",
        "Headquarters": "San Francisco,California",
        "Speciality": "Consumer Based Product",
        "ServicesOffered": "CLoud storage ",
        "TechStack": "Rube|Java|Python",
        "ClientPartner": "Thomas Dohmke",
        "DeliveryManager": "Uppala Sanjay",
        "Timezone": "Tuesday, 27 September 2022 (AKST-5)",
        "DeliveryModel": "TNM",
        "OnshoreResources": 251,
        "OffshoreResource": 102,
        "NearShore": 60,
        "vendors":[
            {"vendor":"gitlab","service":"devlopment"},
            {"vendor":"gitlab","service":"testing"},
            {"vendor":"gitlab","service":"requirment gathering"},
            {"vendor":"gitlab","service":"maintanence"},
            {"vendor":"gitlab1","service":"devlopment"},
            {"vendor":"gitlab1","service":"testing"},
            {"vendor":"gitlab1","service":"requirment gathering"},
            {"vendor":"gitlab1","service":"maintanence"},
            {"vendor":"gitlab2","service":"devlopment"},
            {"vendor":"gitlab2","service":"testing"},
            {"vendor":"gitlab2","service":"requirment gathering"},
            {"vendor":"gitlab2","service":"maintanence"},
            {"vendor":"gitlab3","service":"devlopment"},
            {"vendor":"gitlab3","service":"testing"},
            {"vendor":"gitlab3","service":"requirment gathering"},
            {"vendor":"gitlab3","service":"maintanence"},
            {"vendor":"gitlab4","service":"devlopment"},
            {"vendor":"gitlab4","service":"testing"},
            {"vendor":"gitlab4","service":"requirment gathering"},
            {"vendor":"gitlab4","service":"maintanence"}
    ]
    }
]